counter_sv_tb_coverage/dump.vcd
$date
Sat Nov 28 02:08:48 2020
$end
$version
Riviera-PRO Version 2020.04.130.7729
$end
$timescale
1 ns
$end

$scope module tb_top $end
$var reg 1 ! clk $end
$var reg 1 " rst_n $end

$scope module i_intf $end
$var reg 1 # ld_en $end
$var reg 1 $ updwn $end
$var reg 1 % en $end
$var reg 8 & datain [7:0] $end
$var reg 8 ' dataout [7:0] $end
$var reg 1 ( ld_en $end
$var reg 1 ) updwn $end
$var reg 1 * en $end
$var reg 8 + datain [7:0] $end
$var reg 8 , dataout [7:0] $end
$var reg 1 - ld_en $end
$var reg 1 . updwn $end
$var reg 1 / en $end
$var reg 8 0 datain [7:0] $end
$var reg 8 1 dataout [7:0] $end
$upscope $end


$scope module t1 $end
$upscope $end

$upscope $end

$enddefinitions $end
$dumpvars
1!
0"
x#
x$
x%
bx &
bx '
x(
x)
x*
bx +
bx ,
x-
x.
x/
bx 0
bx 1
$end
#5
0!
#10
1!
0#
1$
1%
b10110110 &
#15
0!
#20
1!
b10110110 0
1/
1.
0-
#25
0!
#30
1!
b1111110 &
#35
0!
#40
1!
b1111110 0
#45
0!
#50
1!
0$
b11001100 &
#55
0!
#60
1!
b11001100 0
0.
#65
0!
#70
1!
1$
b11110 &
#75
0!
#80
1!
b11110 0
1.
#85
0!
#90
1!
0$
b10011001 &
#95
0!
#100
1!
b10011001 0
0.
#105
0!
#110
1!
1$
b110100 &
#115
0!
#120
1!
b110100 0
1.
#125
0!
#130
1!
b11100000 &
#135
0!
#140
1!
b11100000 0
#145
0!
#150
1!
b1000101 &
#155
0!
#160
1!
b1000101 0
#165
0!
#170
1!
b110111 &
#175
0!
#180
1!
b110111 0
#185
0!
#190
1!
b1110110 &
#195
0!
#200
1!
b1110110 0
