17BEV7015_MY_Eth32bit_UVM_v3.02/dump.vcd
$date
	Sat Nov 28 02:11:50 2020
$end

$version
	Synopsys VCS version Q-2020.03-SP1-1
$end

$timescale
	1ns
$end

$comment Csum: 1 63bcc41a94fb1069 $end


$scope module $unit $end
$upscope $end


$scope module tbench_top $end
$var reg 1 ! clk $end
$var reg 1 " rst_n $end

$scope begin unnamed$$_vcs_2 $end
$upscope $end


$scope begin unnamed$$_vcs_0 $end
$upscope $end


$scope begin unnamed$$_vcs_1 $end
$upscope $end


$scope begin unnamed$$_vcs_3 $end
$upscope $end


$scope module intf $end
$var reg 1 # clk $end
$var reg 1 $ rst_n $end
$var reg 1 % Ain $end
$var reg 1 & Bin $end
$var reg 32 ' inDataA [31:0] $end
$var reg 32 ( inDataB [31:0] $end
$var reg 32 ) outDataA [31:0] $end
$var reg 32 * outDataB [31:0] $end
$var reg 1 + Aout $end
$var reg 1 , Bout $end
$upscope $end


$scope module DUT $end
$var wire 1 - clk $end
$var wire 1 . rst_n $end
$var wire 1 / Ain $end
$var wire 1 0 Bin $end
$var wire 32 1 inDataA [31:0] $end
$var wire 32 2 inDataB [31:0] $end
$var reg 32 3 outDataA [31:0] $end
$var reg 32 4 outDataB [31:0] $end
$var reg 1 5 Aout $end
$var reg 1 6 Bout $end
$var reg 32 7 DataRcvd_A [31:0] $end
$var reg 32 8 DataRcvd_B [31:0] $end
$upscope $end

$upscope $end


$scope module uvm_pkg $end
$var reg 32 9 UVM_UNBOUNDED_CONNECTIONS [31:0] $end
$var reg 1 : uvm_start_uvm_declarations $end
$var time 64 ; setting_offset $end
$var reg 32 < setting_verbosity [31:0] $end
$var reg 1 = is_verdi_set_verbosity_called $end
$var reg 32 > uvm_global_random_seed [31:0] $end
$upscope $end

$enddefinitions $end

#0
$dumpvars
0=
1:
bxxxxxxxxxxxxxxxxxxxxxxxxxxxxxxxxxxxxxxxxxxxxxxxxxxxxxxxxxxxxxxxx ;
b11111111111111111111111111111111 9
b00000000000000000000000000000000 <
b01000010000001111100110001000111 >
0!
0"
bxxxxxxxxxxxxxxxxxxxxxxxxxxxxxxxx *
bxxxxxxxxxxxxxxxxxxxxxxxxxxxxxxxx )
bxxxxxxxxxxxxxxxxxxxxxxxxxxxxxxxx (
bxxxxxxxxxxxxxxxxxxxxxxxxxxxxxxxx '
x5
x6
bxxxxxxxxxxxxxxxxxxxxxxxxxxxxxxxx 7
bxxxxxxxxxxxxxxxxxxxxxxxxxxxxxxxx 8
bxxxxxxxxxxxxxxxxxxxxxxxxxxxxxxxx 3
bxxxxxxxxxxxxxxxxxxxxxxxxxxxxxxxx 4
bxxxxxxxxxxxxxxxxxxxxxxxxxxxxxxxx 1
bxxxxxxxxxxxxxxxxxxxxxxxxxxxxxxxx 2
x%
x+
x&
x,
x/
x0
0-
0.
0#
0$
$end
#10
1!
1#
1-
b00000000000000000000000000000000 3
b00000000000000000000000000000000 )
05
0+
06
0,
#11
1%
1/
0&
00
#20
0!
0#
0-
#30
1!
1#
1-
#31
b10001111000110001010011100010110 '
b00101100001111011110001000110110 (
b10001111000110001010011100010110 1
b00101100001111011110001000110110 2
#40
0!
0#
0-
#50
1"
1$
1.
1!
1#
1-
b10001111000110001010011100010110 7
#60
0!
0#
0-
#70
1!
1#
1-
b10001111000110001010011100010110 4
b10001111000110001010011100010110 *
#71
0%
0/
#80
0!
0#
0-
#90
1!
1#
1-
#91
1%
1/
1&
10
#100
0!
0#
0-
#110
1!
1#
1-
b00101100001111011110001000110110 8
#111
b01101001001000011100100000111011 '
b10000000111010011000100100110111 (
b01101001001000011100100000111011 1
b10000000111010011000100100110111 2
#120
0!
0#
0-
#130
1!
1#
1-
b01101001001000011100100000111011 7
b10000000111010011000100100110111 8
#140
0!
0#
0-
#150
1!
1#
1-
b01101001001000011100100000111011 3
b01101001001000011100100000111011 )
b10000000111010011000100100110111 4
b10000000111010011000100100110111 *
