FIFO_assertion_inline/counter.vcd
$date
Sat Nov 28 02:11:00 2020
$end
$version
Riviera-PRO Version 2020.04.130.7729
$end
$timescale
1 ns
$end

$scope module tester_fifo $end
$var wire 1 ! empty $end
$var wire 1 " full $end
$var wire 32 # data_out [31:0] $end
$var reg 1 $ clk $end
$var reg 1 % reset_n $end
$var reg 1 & write_en $end
$var reg 1 ' read_en $end
$var reg 32 ( data_in [31:0] $end
$upscope $end


$scope module UnitScopePackage_1 $end
$var parameter 32 ) FIFO_W [31:0] $end
$var parameter 32 * FIFO_D [31:0] $end
$upscope $end

$enddefinitions $end
$dumpvars
x!
x"
bzxxxxxxxx #
0$
0%
0&
0'
b0 (
b100000 )
b1000 *
$end
#5
1$
0"
1!
bz00000000 #
#10
0$
#15
1$
#20
1%
0$
#25
1$
#30
0$
#35
1$
#40
1'
0$
#45
1$
bzxxxxxxxx #
#50
1&
0'
b10010011001011001100010101011 (
0$
#55
1$
0!
#60
0$
#65
1$
#70
b10000011001011001100010100000 (
0$
#75
1$
#80
b10110011010011001100010100001 (
0$
#85
1$
#90
b10010011001011001001010100010 (
0$
#95
1$
#100
b10010011001011001100010101000 (
0$
#105
1$
#110
b10101011001011001100010101011 (
0$
#115
1$
#120
b10010011011111001100010100110 (
0$
#125
1$
1"
#130
b11100011001011001100010101011 (
0$
#135
1$
#140
b10010011001011001100010100101 (
0$
#145
1$
#150
0&
1'
0$
#155
1$
0"
bz10101011 #
#160
0$
#165
1$
#170
0%
0$
#175
1$
1!
bz00000000 #
#180
0$
#185
1$
#190
1%
1&
